Geography 176A
…
## [1] 4619

##Question1(10) ### (3) Describe the total number of safe counties

library(readxl)
library(tidyverse)
pop <- read_excel("../data/PopulationEstimates.xls", skip = 2)
(pop3 = pop  %>%
    filter(State == "CA") %>%
    select(pop19 = POP_ESTIMATE_2019, state = State, county = Area_Name, fips = FIPStxt) %>%
    group_by(county) %>%
    slice_max(pop19, n=1))

## # A tibble: 59 x 4
## # Groups:   county [59]
##       pop19 state county              fips 
##       <dbl> <chr> <chr>               <chr>
##  1  1671329 CA    Alameda County      06001
##  2     1129 CA    Alpine County       06003
##  3    39752 CA    Amador County       06005
##  4   219186 CA    Butte County        06007
##  5    45905 CA    Calaveras County    06009
##  6 39512223 CA    California          06000
##  7    21547 CA    Colusa County       06011
##  8  1153526 CA    Contra Costa County 06013
##  9    27812 CA    Del Norte County    06015
## 10   192843 CA    El Dorado County    06017
## # ... with 49 more rows

(dat2 = covid %>%
    filter(state == "California") %>%
    group_by(county) %>%
    mutate(newCases = cases - lag(cases)) %>%
    ungroup())

## # A tibble: 9,261 x 7
##    date       county      state      fips  cases deaths newCases
##    <date>     <chr>       <chr>      <chr> <dbl>  <dbl>    <dbl>
##  1 2020-01-25 Orange      California 06059     1      0       NA
##  2 2020-01-26 Los Angeles California 06037     1      0       NA
##  3 2020-01-26 Orange      California 06059     1      0        0
##  4 2020-01-27 Los Angeles California 06037     1      0        0
##  5 2020-01-27 Orange      California 06059     1      0        0
##  6 2020-01-28 Los Angeles California 06037     1      0        0
##  7 2020-01-28 Orange      California 06059     1      0        0
##  8 2020-01-29 Los Angeles California 06037     1      0        0
##  9 2020-01-29 Orange      California 06059     1      0        0
## 10 2020-01-30 Los Angeles California 06037     1      0        0
## # ... with 9,251 more rows

pop_dat2 = right_join(pop3, dat2, by = "fips")

(last14Days = pop_dat2 %>%
    filter(date > max(date) - 14, date < max(date)) %>%
    select(county = county.y, newCases, pop19, date) %>%
    group_by(county, pop19) %>%
    summarise(newCases = sum(newCases, na.rm = TRUE)) %>%
    ungroup() %>%
    mutate(newCases_percapita = (newCases/(pop19/100000))))

## `summarise()` regrouping output by 'county' (override with `.groups` argument)

## # A tibble: 58 x 4
##    county         pop19 newCases newCases_percapita
##    <chr>          <dbl>    <dbl>              <dbl>
##  1 Alameda      1671329     3606              216. 
##  2 Alpine          1129        0                0  
##  3 Amador         39752       42              106. 
##  4 Butte         219186      442              202. 
##  5 Calaveras      45905       61              133. 
##  6 Colusa         21547       51              237. 
##  7 Contra Costa 1153526     3345              290. 
##  8 Del Norte      27812       17               61.1
##  9 El Dorado     192843      162               84.0
## 10 Fresno        999101     5302              531. 
## # ... with 48 more rows
…
